{
  "project_info": {
    "project_number": "941275612269",
    "firebase_url": "https://study-help-line.firebaseio.com",
    "project_id": "study-help-line",
    "storage_bucket": "study-help-line.appspot.com"
  },
  "client": [
    {
      "client_info": {
        "mobilesdk_app_id": "1:941275612269:android:ce7d14ca618c64e374eb64",
        "android_client_info": {
          "package_name": "com.example.study_help_line_admin"
        }
      },
      "oauth_client": [
        {
          "client_id": "941275612269-m8akeidkbbjpmb4a3enb91qaa7cqnai6.apps.googleusercontent.com",
          "client_type": 3
        }
      ],
      "api_key": [
        {
          "current_key": "AIzaSyALz-HdpoMZqGsXjj5uQroHBAUfBITGS2c"
        }
      ],
      "services": {
        "appinvite_service": {
          "other_platform_oauth_client": [
            {
              "client_id": "941275612269-m8akeidkbbjpmb4a3enb91qaa7cqnai6.apps.googleusercontent.com",
              "client_type": 3
            }
          ]
        }
      }
    },
    {
      "client_info": {
        "mobilesdk_app_id": "1:941275612269:android:b4c7d1ef75f5665674eb64",
        "android_client_info": {
          "package_name": "com.example.study_help_line_user"
        }
      },
      "oauth_client": [
        {
          "client_id": "941275612269-m8akeidkbbjpmb4a3enb91qaa7cqnai6.apps.googleusercontent.com",
          "client_type": 3
        }
      ],
      "api_key": [
        {
          "current_key": "AIzaSyALz-HdpoMZqGsXjj5uQroHBAUfBITGS2c"
        }
      ],
      "services": {
        "appinvite_service": {
          "other_platform_oauth_client": [
            {
              "client_id": "941275612269-m8akeidkbbjpmb4a3enb91qaa7cqnai6.apps.googleusercontent.com",
              "client_type": 3
            }
          ]
        }
      }
    }
  ],
  "configuration_version": "1"
}